{
  "success": true,
  "errorCode": null,
  "desc": null,
  "data": {
    "page": {
      "list": [
        {
          "slotId": 68,
          "slotName": "我的页面1",
          "actExposeCount": 0,
          "actClickCount": 0,
          "actClickRate": null,
          "sdkPv": 13062,
          "sdkUv": 9262,
          "actRequestCount": 16116,
          "actRequestUv": 6409,
          "participateCount": 33543,
          "participateUv": 4367,
          "participateRate": 0.6814,
          "dupliParticipateRate": 7.681,
          "launchPerSdkUv": 3.6014,
          "launchCount": 33356,
          "highriskLaunch": 14821,
          "highriskLaunchPercentage": 0.4443,
          "advertExposureCount": 18650,
          "advertClickCount": 6189,
          "tuiaConsumerCount": 5748,
          "clickRate": 0.3318,
          "advertClickRate": 0.3082,
          "highriskVclickPv": 10,
          "highriskVclickPercent": 0.0017,
          "highriskConsume": 7,
          "adConsume": 3124,
          "advertClickLoadPv": 2459,
          "visitPv": 2145,
          "visitUv": 1704,
          "effectPv": 1121,
          "effectUv": 1085,
          "effectRate": 0.4559,
          "effectCvr": 0.41,
          "consumeTotal": 2186,
          "consumePercent": 69.9997,
          "recommendConsumePercent": 0.698392859739,
          "mediaCpm": null,
          "consumePerSdkUv": 0.16742536,
          "arpu": 0.09366141
        },
        {
          "slotId": 78,
          "slotName": "桌面天气icon",
          "actExposeCount": 0,
          "actClickCount": 0,
          "actClickRate": null,
          "sdkPv": 26118,
          "sdkUv": 13138,
          "actRequestCount": 65247,
          "actRequestUv": 13099,
          "participateCount": 55485,
          "participateUv": 5953,
          "participateRate": 0.4545,
          "dupliParticipateRate": 9.3205,
          "launchPerSdkUv": 0.7047,
          "launchCount": 9259,
          "highriskLaunch": 0,
          "highriskLaunchPercentage": 0.0,
          "advertExposureCount": 9281,
          "advertClickCount": 3015,
          "tuiaConsumerCount": 2792,
          "clickRate": 0.3249,
          "advertClickRate": 0.3008,
          "highriskVclickPv": 18,
          "highriskVclickPercent": 0.0064,
          "highriskConsume": 9,
          "adConsume": 1096,
          "advertClickLoadPv": 1062,
          "visitPv": 1053,
          "visitUv": 520,
          "effectPv": 50,
          "effectUv": 48,
          "effectRate": 0.0471,
          "effectCvr": 0.05,
          "consumeTotal": 548,
          "consumePercent": 49.9995,
          "recommendConsumePercent": 0.49579950739,
          "mediaCpm": null,
          "consumePerSdkUv": 0.02098706,
          "arpu": 0.11840264
        },
        {
          "slotId": 84,
          "slotName": "惠锁屏首页banner",
          "actExposeCount": 0,
          "actClickCount": 0,
          "actClickRate": null,
          "sdkPv": 7951,
          "sdkUv": 6295,
          "actRequestCount": 12676,
          "actRequestUv": 6302,
          "participateCount": 17448,
          "participateUv": 4714,
          "participateRate": 0.748,
          "dupliParticipateRate": 3.7013,
          "launchPerSdkUv": 2.7705,
          "launchCount": 17440,
          "highriskLaunch": 709,
          "highriskLaunchPercentage": 0.0407,
          "advertExposureCount": 17233,
          "advertClickCount": 4993,
          "tuiaConsumerCount": 4630,
          "clickRate": 0.2897,
          "advertClickRate": 0.2687,
          "highriskVclickPv": 29,
          "highriskVclickPercent": 0.0063,
          "highriskConsume": 16,
          "adConsume": 1891,
          "advertClickLoadPv": 1211,
          "visitPv": 1161,
          "visitUv": 825,
          "effectPv": 293,
          "effectUv": 249,
          "effectRate": 0.2419,
          "effectCvr": 0.17,
          "consumeTotal": 669,
          "consumePercent": 35.3898,
          "recommendConsumePercent": 0.350890672426,
          "mediaCpm": null,
          "consumePerSdkUv": 0.08417306,
          "arpu": 0.10843521
        },
        {
          "slotId": 88,
          "slotName": "零花钱-首页-banner",
          "actExposeCount": 0,
          "actClickCount": 0,
          "actClickRate": null,
          "sdkPv": 21698,
          "sdkUv": 6060,
          "actRequestCount": 22229,
          "actRequestUv": 6060,
          "participateCount": 1934,
          "participateUv": 373,
          "participateRate": 0.0616,
          "dupliParticipateRate": 5.185,
          "launchPerSdkUv": 0.3183,
          "launchCount": 1929,
          "highriskLaunch": 0,
          "highriskLaunchPercentage": 0.0,
          "advertExposureCount": 1931,
          "advertClickCount": 502,
          "tuiaConsumerCount": 492,
          "clickRate": 0.26,
          "advertClickRate": 0.2548,
          "highriskVclickPv": 0,
          "highriskVclickPercent": 0.0,
          "highriskConsume": 0,
          "adConsume": 193,
          "advertClickLoadPv": 336,
          "visitPv": 318,
          "visitUv": 165,
          "effectPv": 33,
          "effectUv": 25,
          "effectRate": 0.0982,
          "effectCvr": 0.06,
          "consumeTotal": 96,
          "consumePercent": 50.0,
          "recommendConsumePercent": 0.5,
          "mediaCpm": null,
          "consumePerSdkUv": 0.00447,
          "arpu": 0.10055988
        },
        {
          "slotId": 99,
          "slotName": "弹框",
          "actExposeCount": 0,
          "actClickCount": 0,
          "actClickRate": null,
          "sdkPv": 3856,
          "sdkUv": 2410,
          "actRequestCount": 4056,
          "actRequestUv": 2410,
          "participateCount": 1181,
          "participateUv": 250,
          "participateRate": 0.1037,
          "dupliParticipateRate": 4.724,
          "launchPerSdkUv": 0.49,
          "launchCount": 1181,
          "highriskLaunch": 0,
          "highriskLaunchPercentage": 0.0,
          "advertExposureCount": 1164,
          "advertClickCount": 212,
          "tuiaConsumerCount": 204,
          "clickRate": 0.1821,
          "advertClickRate": 0.1753,
          "highriskVclickPv": 0,
          "highriskVclickPercent": 0.0,
          "highriskConsume": 0,
          "adConsume": 70,
          "advertClickLoadPv": 168,
          "visitPv": 141,
          "visitUv": 81,
          "effectPv": 25,
          "effectUv": 15,
          "effectRate": 0.1488,
          "effectCvr": 0.12,
          "consumeTotal": 28,
          "consumePercent": 39.9971,
          "recommendConsumePercent": 0.39997144081,
          "mediaCpm": null,
          "consumePerSdkUv": 0.007264,
          "arpu": 0.05929721
        },
        {
          "slotId": 111,
          "slotName": "车来了－固定位icon",
          "actExposeCount": 0,
          "actClickCount": 0,
          "actClickRate": null,
          "sdkPv": 4308,
          "sdkUv": 3111,
          "actRequestCount": 6145,
          "actRequestUv": 2432,
          "participateCount": 14511,
          "participateUv": 2121,
          "participateRate": 0.8721,
          "dupliParticipateRate": 6.8416,
          "launchPerSdkUv": 4.6303,
          "launchCount": 14405,
          "highriskLaunch": 4492,
          "highriskLaunchPercentage": 0.3118,
          "advertExposureCount": 10023,
          "advertClickCount": 3662,
          "tuiaConsumerCount": 3524,
          "clickRate": 0.3654,
          "advertClickRate": 0.3516,
          "highriskVclickPv": 4,
          "highriskVclickPercent": 0.0011,
          "highriskConsume": 2,
          "adConsume": 1570,
          "advertClickLoadPv": 1905,
          "visitPv": 1870,
          "visitUv": 1122,
          "effectPv": 303,
          "effectUv": 257,
          "effectRate": 0.1591,
          "effectCvr": 0.14,
          "consumeTotal": 1020,
          "consumePercent": 64.9998,
          "recommendConsumePercent": 0.649124424312,
          "mediaCpm": null,
          "consumePerSdkUv": 0.2369429,
          "arpu": 0.10901701
        },
        {
          "slotId": 167,
          "slotName": "banner",
          "actExposeCount": 0,
          "actClickCount": 0,
          "actClickRate": null,
          "sdkPv": 17584,
          "sdkUv": 12336,
          "actRequestCount": 19940,
          "actRequestUv": 12375,
          "participateCount": 7290,
          "participateUv": 2601,
          "participateRate": 0.2102,
          "dupliParticipateRate": 2.8028,
          "launchPerSdkUv": 0.5877,
          "launchCount": 7250,
          "highriskLaunch": 133,
          "highriskLaunchPercentage": 0.0183,
          "advertExposureCount": 7050,
          "advertClickCount": 3932,
          "tuiaConsumerCount": 3555,
          "clickRate": 0.5577,
          "advertClickRate": 0.5043,
          "highriskVclickPv": 32,
          "highriskVclickPercent": 0.009,
          "highriskConsume": 16,
          "adConsume": 1583,
          "advertClickLoadPv": 1037,
          "visitPv": 968,
          "visitUv": 718,
          "effectPv": 187,
          "effectUv": 179,
          "effectRate": 0.1803,
          "effectCvr": 0.14,
          "consumeTotal": 1090,
          "consumePercent": 68.8899,
          "recommendConsumePercent": 0.681715934876,
          "mediaCpm": null,
          "consumePerSdkUv": 0.06203537,
          "arpu": 0.21840552
        },
        {
          "slotId": 171,
          "slotName": "首页banner",
          "actExposeCount": 0,
          "actClickCount": 0,
          "actClickRate": null,
          "sdkPv": 3725,
          "sdkUv": 1536,
          "actRequestCount": 2783,
          "actRequestUv": 1433,
          "participateCount": 1991,
          "participateUv": 875,
          "participateRate": 0.6106,
          "dupliParticipateRate": 2.2754,
          "launchPerSdkUv": 1.2897,
          "launchCount": 1981,
          "highriskLaunch": 0,
          "highriskLaunchPercentage": 0.0,
          "advertExposureCount": 1951,
          "advertClickCount": 1638,
          "tuiaConsumerCount": 1135,
          "clickRate": 0.8396,
          "advertClickRate": 0.5818,
          "highriskVclickPv": 27,
          "highriskVclickPercent": 0.0238,
          "highriskConsume": 13,
          "adConsume": 501,
          "advertClickLoadPv": 510,
          "visitPv": 465,
          "visitUv": 336,
          "effectPv": 30,
          "effectUv": 26,
          "effectRate": 0.0588,
          "effectCvr": 0.09,
          "consumeTotal": 250,
          "consumePercent": 49.8784,
          "recommendConsumePercent": 0.485305282223,
          "mediaCpm": null,
          "consumePerSdkUv": 0.06718926,
          "arpu": 0.25329631
        },
        {
          "slotId": 172,
          "slotName": "M首页banner",
          "actExposeCount": 0,
          "actClickCount": 0,
          "actClickRate": null,
          "sdkPv": 7475,
          "sdkUv": 5834,
          "actRequestCount": 9496,
          "actRequestUv": 5856,
          "participateCount": 7486,
          "participateUv": 4623,
          "participateRate": 0.7894,
          "dupliParticipateRate": 1.6193,
          "launchPerSdkUv": 1.3322,
          "launchCount": 7772,
          "highriskLaunch": 0,
          "highriskLaunchPercentage": 0.0,
          "advertExposureCount": 6973,
          "advertClickCount": 2705,
          "tuiaConsumerCount": 1726,
          "clickRate": 0.3879,
          "advertClickRate": 0.2475,
          "highriskVclickPv": 67,
          "highriskVclickPercent": 0.0388,
          "highriskConsume": 32,
          "adConsume": 762,
          "advertClickLoadPv": 773,
          "visitPv": 672,
          "visitUv": 550,
          "effectPv": 40,
          "effectUv": 37,
          "effectRate": 0.0517,
          "effectCvr": 0.1,
          "consumeTotal": 457,
          "consumePercent": 59.9997,
          "recommendConsumePercent": 0.574284440383,
          "mediaCpm": null,
          "consumePerSdkUv": 0.06120936,
          "arpu": 0.0981176
        },
        {
          "slotId": 179,
          "slotName": "值得买活动位",
          "actExposeCount": 0,
          "actClickCount": 0,
          "actClickRate": null,
          "sdkPv": 1241,
          "sdkUv": 954,
          "actRequestCount": 1813,
          "actRequestUv": 954,
          "participateCount": 2773,
          "participateUv": 653,
          "participateRate": 0.6845,
          "dupliParticipateRate": 4.2466,
          "launchPerSdkUv": 2.8931,
          "launchCount": 2760,
          "highriskLaunch": 0,
          "highriskLaunchPercentage": 0.0,
          "advertExposureCount": 2731,
          "advertClickCount": 812,
          "tuiaConsumerCount": 795,
          "clickRate": 0.2973,
          "advertClickRate": 0.2911,
          "highriskVclickPv": 0,
          "highriskVclickPercent": 0.0,
          "highriskConsume": 0,
          "adConsume": 389,
          "advertClickLoadPv": 388,
          "visitPv": 380,
          "visitUv": 290,
          "effectPv": 61,
          "effectUv": 52,
          "effectRate": 0.1572,
          "effectCvr": 0.15,
          "consumeTotal": 233,
          "consumePercent": 59.999,
          "recommendConsumePercent": 0.59998973674,
          "mediaCpm": null,
          "consumePerSdkUv": 0.18842869,
          "arpu": 0.14121014
        },
        {
          "slotId": 201,
          "slotName": "首页角标",
          "actExposeCount": 0,
          "actClickCount": 0,
          "actClickRate": null,
          "sdkPv": 115132,
          "sdkUv": 71652,
          "actRequestCount": 145541,
          "actRequestUv": 71670,
          "participateCount": 116140,
          "participateUv": 35093,
          "participateRate": 0.4896,
          "dupliParticipateRate": 3.3095,
          "launchPerSdkUv": 1.5364,
          "launchCount": 110083,
          "highriskLaunch": 1493,
          "highriskLaunchPercentage": 0.0136,
          "advertExposureCount": 102763,
          "advertClickCount": 28800,
          "tuiaConsumerCount": 28171,
          "clickRate": 0.2803,
          "advertClickRate": 0.2741,
          "highriskVclickPv": 2,
          "highriskVclickPercent": 1.0E-4,
          "highriskConsume": 0,
          "adConsume": 13241,
          "advertClickLoadPv": 18528,
          "visitPv": 17705,
          "visitUv": 14715,
          "effectPv": 9053,
          "effectUv": 8584,
          "effectRate": 0.4886,
          "effectCvr": 0.46,
          "consumeTotal": 8000,
          "consumePercent": 60.4145,
          "recommendConsumePercent": 0.604112341963,
          "mediaCpm": null,
          "consumePerSdkUv": 0.06948546,
          "arpu": 0.12028969
        },
        {
          "slotId": 214,
          "slotName": "位置1-推荐频道ICON",
          "actExposeCount": 0,
          "actClickCount": 0,
          "actClickRate": null,
          "sdkPv": 10526,
          "sdkUv": 8808,
          "actRequestCount": 17434,
          "actRequestUv": 8809,
          "participateCount": 14473,
          "participateUv": 7241,
          "participateRate": 0.822,
          "dupliParticipateRate": 1.9988,
          "launchPerSdkUv": 1.6356,
          "launchCount": 14406,
          "highriskLaunch": 0,
          "highriskLaunchPercentage": 0.0,
          "advertExposureCount": 14010,
          "advertClickCount": 2365,
          "tuiaConsumerCount": 2058,
          "clickRate": 0.1688,
          "advertClickRate": 0.1469,
          "highriskVclickPv": 1,
          "highriskVclickPercent": 5.0E-4,
          "highriskConsume": 0,
          "adConsume": 729,
          "advertClickLoadPv": 1348,
          "visitPv": 1193,
          "visitUv": 624,
          "effectPv": 166,
          "effectUv": 139,
          "effectRate": 0.1231,
          "effectCvr": 0.11,
          "consumeTotal": 432,
          "consumePercent": 59.3194,
          "recommendConsumePercent": 0.592868127841,
          "mediaCpm": null,
          "consumePerSdkUv": 0.04108398,
          "arpu": 0.0506053
        },
        {
          "slotId": 215,
          "slotName": "位置2-信息流大图",
          "actExposeCount": 0,
          "actClickCount": 0,
          "actClickRate": null,
          "sdkPv": 1086,
          "sdkUv": 750,
          "actRequestCount": 1566,
          "actRequestUv": 750,
          "participateCount": 1532,
          "participateUv": 355,
          "participateRate": 0.4733,
          "dupliParticipateRate": 4.3155,
          "launchPerSdkUv": 2.0347,
          "launchCount": 1526,
          "highriskLaunch": 0,
          "highriskLaunchPercentage": 0.0,
          "advertExposureCount": 1484,
          "advertClickCount": 471,
          "tuiaConsumerCount": 421,
          "clickRate": 0.3174,
          "advertClickRate": 0.2837,
          "highriskVclickPv": 8,
          "highriskVclickPercent": 0.019,
          "highriskConsume": 2,
          "adConsume": 160,
          "advertClickLoadPv": 283,
          "visitPv": 260,
          "visitUv": 119,
          "effectPv": 42,
          "effectUv": 31,
          "effectRate": 0.1484,
          "effectCvr": 0.12,
          "consumeTotal": 79,
          "consumePercent": 49.5756,
          "recommendConsumePercent": 0.487928959031,
          "mediaCpm": null,
          "consumePerSdkUv": 0.07314917,
          "arpu": 0.10500655
        },
        {
          "slotId": 218,
          "slotName": "主界面icon",
          "actExposeCount": 0,
          "actClickCount": 0,
          "actClickRate": null,
          "sdkPv": 80841,
          "sdkUv": 57346,
          "actRequestCount": 122836,
          "actRequestUv": 57358,
          "participateCount": 122941,
          "participateUv": 32495,
          "participateRate": 0.5665,
          "dupliParticipateRate": 3.7834,
          "launchPerSdkUv": 2.1375,
          "launchCount": 122575,
          "highriskLaunch": 1718,
          "highriskLaunchPercentage": 0.014,
          "advertExposureCount": 120919,
          "advertClickCount": 32289,
          "tuiaConsumerCount": 30888,
          "clickRate": 0.267,
          "advertClickRate": 0.2554,
          "highriskVclickPv": 8,
          "highriskVclickPercent": 3.0E-4,
          "highriskConsume": 1,
          "adConsume": 8367,
          "advertClickLoadPv": 25029,
          "visitPv": 23608,
          "visitUv": 16497,
          "effectPv": 1182,
          "effectUv": 1052,
          "effectRate": 0.0472,
          "effectCvr": 0.05,
          "consumeTotal": 5610,
          "consumePercent": 67.0499,
          "recommendConsumePercent": 0.670350632075,
          "mediaCpm": null,
          "consumePerSdkUv": 0.06940191,
          "arpu": 0.0682658
        },
        {
          "slotId": 232,
          "slotName": "中华万年历",
          "actExposeCount": 0,
          "actClickCount": 0,
          "actClickRate": null,
          "sdkPv": 538,
          "sdkUv": 388,
          "actRequestCount": 1012,
          "actRequestUv": 391,
          "participateCount": 1024,
          "participateUv": 282,
          "participateRate": 0.7212,
          "dupliParticipateRate": 3.6312,
          "launchPerSdkUv": 2.6263,
          "launchCount": 1019,
          "highriskLaunch": 0,
          "highriskLaunchPercentage": 0.0,
          "advertExposureCount": 985,
          "advertClickCount": 523,
          "tuiaConsumerCount": 447,
          "clickRate": 0.531,
          "advertClickRate": 0.4538,
          "highriskVclickPv": 1,
          "highriskVclickPercent": 0.0022,
          "highriskConsume": 0,
          "adConsume": 193,
          "advertClickLoadPv": 158,
          "visitPv": 141,
          "visitUv": 106,
          "effectPv": 35,
          "effectUv": 34,
          "effectRate": 0.2215,
          "effectCvr": 0.19,
          "consumeTotal": 134,
          "consumePercent": 69.7297,
          "recommendConsumePercent": 0.696287957177,
          "mediaCpm": null,
          "consumePerSdkUv": 0.25078067,
          "arpu": 0.18988224
        }
      ],
      "page": 1,
      "pageSize": 15,
      "totalPages": 61.0,
      "totalRecords": 915
    },
    "total": {
      "slotId": null,
      "slotName": null,
      "actExposeCount": 113668312,
      "actClickCount": 3703577,
      "actClickRate": 0.0326,
      "sdkPv": 25149158,
      "sdkUv": 16332324,
      "actRequestCount": 35142428,
      "actRequestUv": 15926066,
      "participateCount": 28155196,
      "participateUv": 8327951,
      "participateRate": 0.5229,
      "dupliParticipateRate": 3.3808,
      "launchPerSdkUv": 1.7002,
      "launchCount": 27768741,
      "highriskLaunch": 672084,
      "highriskLaunchPercentage": 0.0242,
      "advertExposureCount": 26995990,
      "advertClickCount": 9755334,
      "tuiaConsumerCount": 8444349,
      "clickRate": 0.3614,
      "advertClickRate": 0.3128,
      "highriskVclickPv": 79297,
      "highriskVclickPercent": 0.0094,
      "highriskConsume": 39278,
      "adConsume": 3514288,
      "advertClickLoadPv": 3338391,
      "visitPv": 3082851,
      "visitUv": 2148048,
      "effectPv": 418207,
      "effectUv": 375428,
      "effectRate": 0.1253,
      "effectCvr": 0.10096348438187451,
      "consumeTotal": 1920815,
      "consumePercent": 54.6573,
      "recommendConsumePercent": 0.540464296761,
      "mediaCpm": 16.89842962,
      "consumePerSdkUv": 0.07637695,
      "arpu": 0.12655557
    }
  }
}