{
  "success": true,
  "errorCode": null,
  "desc": null,
  "data": {
    "page": {
      "list": [
        {
          "appName": "WiFi信号增强器2呜呜呜呜无无无无无无无无无无无无无无无",
          "appId": 19709,
          "actExposeCount": 0,
          "actClickCount": 0,
          "actClickRate": null,
          "sdkPv": 30795,
          "sdkUv": 18623,
          "actRequestCount": 40672,
          "actRequestUv": 18635,
          "participateCount": 37388,
          "participateUv": 8517,
          "participateRate": 0.457,
          "dupliParticipateRate": 4.3898,
          "launchPerSdkUv": 1.9478,
          "launchCount": 36274,
          "highriskLaunch": 0,
          "highriskLaunchPercentage": 0.0,
          "advertExposureCount": 36038,
          "advertClickCount": 15036,
          "tuiaConsumerCount": 14266,
          "clickRate": 0.4172,
          "advertClickRate": 0.3959,
          "highriskVclickPv": 54,
          "highriskVclickPercent": 0.0038,
          "highriskConsume": 19,
          "adConsume": 4720,
          "advertClickLoadPv": 8782,
          "visitPv": 8390,
          "visitUv": 4321,
          "effectPv": 783,
          "effectUv": 612,
          "effectRate": 0.0892,
          "effectCvr": 0.07,
          "consumeTotal": 2634,
          "consumePercent": 55.8152,
          "recommendConsumePercent": 0.5558260069,
          "mediaCpm": null,
          "consumePerSdkUv": 0.08556097,
          "arpu": 0.13013922
        },
        {
          "appName": "学生赚",
          "appId": 20856,
          "actExposeCount": 173765,
          "actClickCount": 9282,
          "actClickRate": 0.0534,
          "sdkPv": 28006,
          "sdkUv": 5735,
          "actRequestCount": 23483,
          "actRequestUv": 5423,
          "participateCount": 34394,
          "participateUv": 3720,
          "participateRate": 0.686,
          "dupliParticipateRate": 9.2457,
          "launchPerSdkUv": 5.9749,
          "launchCount": 34266,
          "highriskLaunch": 283,
          "highriskLaunchPercentage": 0.0083,
          "advertExposureCount": 34152,
          "advertClickCount": 10147,
          "tuiaConsumerCount": 9311,
          "clickRate": 0.2971,
          "advertClickRate": 0.2726,
          "highriskVclickPv": 39,
          "highriskVclickPercent": 0.0042,
          "highriskConsume": 19,
          "adConsume": 3735,
          "advertClickLoadPv": 4112,
          "visitPv": 3743,
          "visitUv": 1740,
          "effectPv": 502,
          "effectUv": 360,
          "effectRate": 0.1221,
          "effectCvr": 0.11,
          "consumeTotal": 1680,
          "consumePercent": 44.9996,
          "recommendConsumePercent": 0.44760478228,
          "mediaCpm": 9.67277645,
          "consumePerSdkUv": 0.06001535,
          "arpu": 0.10900368
        },
        {
          "appName": "熊猫试玩",
          "appId": 20916,
          "actExposeCount": 137629,
          "actClickCount": 1106,
          "actClickRate": 0.008,
          "sdkPv": 1162,
          "sdkUv": 913,
          "actRequestCount": 1810,
          "actRequestUv": 913,
          "participateCount": 3796,
          "participateUv": 795,
          "participateRate": 0.8708,
          "dupliParticipateRate": 4.7748,
          "launchPerSdkUv": 4.149,
          "launchCount": 3788,
          "highriskLaunch": 0,
          "highriskLaunchPercentage": 0.0,
          "advertExposureCount": 3769,
          "advertClickCount": 709,
          "tuiaConsumerCount": 665,
          "clickRate": 0.1881,
          "advertClickRate": 0.1764,
          "highriskVclickPv": 1,
          "highriskVclickPercent": 0.0015,
          "highriskConsume": 0,
          "adConsume": 424,
          "advertClickLoadPv": 278,
          "visitPv": 265,
          "visitUv": 212,
          "effectPv": 106,
          "effectUv": 102,
          "effectRate": 0.3813,
          "effectCvr": 0.41,
          "consumeTotal": 212,
          "consumePercent": 50.0,
          "recommendConsumePercent": 0.498834471392,
          "mediaCpm": 1.5429161,
          "consumePerSdkUv": 0.18274527,
          "arpu": 0.11211721
        },
        {
          "appName": "魔秀桌面",
          "appId": 20959,
          "actExposeCount": 0,
          "actClickCount": 0,
          "actClickRate": null,
          "sdkPv": 26129,
          "sdkUv": 13139,
          "actRequestCount": 65257,
          "actRequestUv": 13098,
          "participateCount": 55493,
          "participateUv": 5952,
          "participateRate": 0.4544,
          "dupliParticipateRate": 9.3234,
          "launchPerSdkUv": 0.7048,
          "launchCount": 9261,
          "highriskLaunch": 0,
          "highriskLaunchPercentage": 0.0,
          "advertExposureCount": 9284,
          "advertClickCount": 3015,
          "tuiaConsumerCount": 2792,
          "clickRate": 0.3248,
          "advertClickRate": 0.3007,
          "highriskVclickPv": 18,
          "highriskVclickPercent": 0.0064,
          "highriskConsume": 9,
          "adConsume": 1096,
          "advertClickLoadPv": 1062,
          "visitPv": 1049,
          "visitUv": 518,
          "effectPv": 49,
          "effectUv": 47,
          "effectRate": 0.0461,
          "effectCvr": 0.05,
          "consumeTotal": 548,
          "consumePercent": 49.9995,
          "recommendConsumePercent": 0.49579950739,
          "mediaCpm": null,
          "consumePerSdkUv": 0.02097822,
          "arpu": 0.11837707
        },
        {
          "appName": "墨迹天气IOS",
          "appId": 21012,
          "actExposeCount": 0,
          "actClickCount": 0,
          "actClickRate": null,
          "sdkPv": 13412,
          "sdkUv": 9493,
          "actRequestCount": 16642,
          "actRequestUv": 6568,
          "participateCount": 34432,
          "participateUv": 4475,
          "participateRate": 0.6813,
          "dupliParticipateRate": 7.6943,
          "launchPerSdkUv": 3.6066,
          "launchCount": 34237,
          "highriskLaunch": 14821,
          "highriskLaunchPercentage": 0.4329,
          "advertExposureCount": 19520,
          "advertClickCount": 6359,
          "tuiaConsumerCount": 5907,
          "clickRate": 0.3258,
          "advertClickRate": 0.3026,
          "highriskVclickPv": 10,
          "highriskVclickPercent": 0.0017,
          "highriskConsume": 7,
          "adConsume": 3207,
          "advertClickLoadPv": 2518,
          "visitPv": 2167,
          "visitUv": 1729,
          "effectPv": 1143,
          "effectUv": 1107,
          "effectRate": 0.4539,
          "effectCvr": 0.42,
          "consumeTotal": 2244,
          "consumePercent": 69.9994,
          "recommendConsumePercent": 0.698431636965,
          "mediaCpm": null,
          "consumePerSdkUv": 0.16738592,
          "arpu": 0.09367468
        },
        {
          "appName": "小鱼赚钱app",
          "appId": 21018,
          "actExposeCount": 917387,
          "actClickCount": 2420,
          "actClickRate": 0.0026,
          "sdkPv": 4838,
          "sdkUv": 2113,
          "actRequestCount": 4197,
          "actRequestUv": 1937,
          "participateCount": 11006,
          "participateUv": 1735,
          "participateRate": 0.8957,
          "dupliParticipateRate": 6.3435,
          "launchPerSdkUv": 5.1671,
          "launchCount": 10918,
          "highriskLaunch": 61,
          "highriskLaunchPercentage": 0.0056,
          "advertExposureCount": 10947,
          "advertClickCount": 3465,
          "tuiaConsumerCount": 3301,
          "clickRate": 0.3165,
          "advertClickRate": 0.3015,
          "highriskVclickPv": 2,
          "highriskVclickPercent": 6.0E-4,
          "highriskConsume": 0,
          "adConsume": 1952,
          "advertClickLoadPv": 1970,
          "visitPv": 1936,
          "visitUv": 1210,
          "effectPv": 829,
          "effectUv": 700,
          "effectRate": 0.4208,
          "effectCvr": 0.46,
          "consumeTotal": 390,
          "consumePercent": 19.9996,
          "recommendConsumePercent": 0.199898593016,
          "mediaCpm": 0.4256546,
          "consumePerSdkUv": 0.0807131,
          "arpu": 0.1788322
        },
        {
          "appName": "赚多宝",
          "appId": 21054,
          "actExposeCount": 91143,
          "actClickCount": 21979,
          "actClickRate": 0.2411,
          "sdkPv": 35905,
          "sdkUv": 17218,
          "actRequestCount": 54997,
          "actRequestUv": 17183,
          "participateCount": 52012,
          "participateUv": 13524,
          "participateRate": 0.7871,
          "dupliParticipateRate": 3.8459,
          "launchPerSdkUv": 2.9772,
          "launchCount": 51261,
          "highriskLaunch": 0,
          "highriskLaunchPercentage": 0.0,
          "advertExposureCount": 47315,
          "advertClickCount": 13666,
          "tuiaConsumerCount": 12997,
          "clickRate": 0.2888,
          "advertClickRate": 0.2747,
          "highriskVclickPv": 7,
          "highriskVclickPercent": 5.0E-4,
          "highriskConsume": 2,
          "adConsume": 3995,
          "advertClickLoadPv": 8626,
          "visitPv": 7986,
          "visitUv": 4309,
          "effectPv": 398,
          "effectUv": 315,
          "effectRate": 0.0461,
          "effectCvr": 0.05,
          "consumeTotal": 2163,
          "consumePercent": 54.1336,
          "recommendConsumePercent": 0.541003658377,
          "mediaCpm": 23.73215716,
          "consumePerSdkUv": 0.06024286,
          "arpu": 0.07794834
        },
        {
          "appName": "零花钱",
          "appId": 21200,
          "actExposeCount": 25120,
          "actClickCount": 3816,
          "actClickRate": 0.1519,
          "sdkPv": 26540,
          "sdkUv": 8610,
          "actRequestCount": 28367,
          "actRequestUv": 8610,
          "participateCount": 15392,
          "participateUv": 1973,
          "participateRate": 0.2292,
          "dupliParticipateRate": 7.8013,
          "launchPerSdkUv": 1.7833,
          "launchCount": 15354,
          "highriskLaunch": 107,
          "highriskLaunchPercentage": 0.007,
          "advertExposureCount": 15248,
          "advertClickCount": 3654,
          "tuiaConsumerCount": 3569,
          "clickRate": 0.2396,
          "advertClickRate": 0.2341,
          "highriskVclickPv": 0,
          "highriskVclickPercent": 0.0,
          "highriskConsume": 0,
          "adConsume": 1346,
          "advertClickLoadPv": 2529,
          "visitPv": 2496,
          "visitUv": 984,
          "effectPv": 223,
          "effectUv": 171,
          "effectRate": 0.0882,
          "effectCvr": 0.06,
          "consumeTotal": 658,
          "consumePercent": 48.8689,
          "recommendConsumePercent": 0.48868875706,
          "mediaCpm": 26.20262739,
          "consumePerSdkUv": 0.02480068,
          "arpu": 0.08772242
        },
        {
          "appName": "惠锁屏",
          "appId": 21202,
          "actExposeCount": 0,
          "actClickCount": 0,
          "actClickRate": null,
          "sdkPv": 393962,
          "sdkUv": 132876,
          "actRequestCount": 561350,
          "actRequestUv": 132887,
          "participateCount": 939164,
          "participateUv": 131075,
          "participateRate": 0.9864,
          "dupliParticipateRate": 7.1651,
          "launchPerSdkUv": 6.5253,
          "launchCount": 867054,
          "highriskLaunch": 14903,
          "highriskLaunchPercentage": 0.0172,
          "advertExposureCount": 842589,
          "advertClickCount": 83771,
          "tuiaConsumerCount": 66263,
          "clickRate": 0.0994,
          "advertClickRate": 0.0786,
          "highriskVclickPv": 799,
          "highriskVclickPercent": 0.0121,
          "highriskConsume": 353,
          "adConsume": 22930,
          "advertClickLoadPv": 19795,
          "visitPv": 17031,
          "visitUv": 12062,
          "effectPv": 3326,
          "effectUv": 2930,
          "effectRate": 0.168,
          "effectCvr": 0.2,
          "consumeTotal": 12419,
          "consumePercent": 54.162,
          "recommendConsumePercent": 0.533280127021,
          "mediaCpm": null,
          "consumePerSdkUv": 0.03152449,
          "arpu": 0.02644608
        },
        {
          "appName": "有信IOS",
          "appId": 21219,
          "actExposeCount": 0,
          "actClickCount": 6038,
          "actClickRate": null,
          "sdkPv": 7310,
          "sdkUv": 4810,
          "actRequestCount": 8916,
          "actRequestUv": 4768,
          "participateCount": 9490,
          "participateUv": 2056,
          "participateRate": 0.4312,
          "dupliParticipateRate": 4.6158,
          "launchPerSdkUv": 1.9638,
          "launchCount": 9446,
          "highriskLaunch": 184,
          "highriskLaunchPercentage": 0.0195,
          "advertExposureCount": 9332,
          "advertClickCount": 2242,
          "tuiaConsumerCount": 2143,
          "clickRate": 0.2402,
          "advertClickRate": 0.2296,
          "highriskVclickPv": 3,
          "highriskVclickPercent": 0.0014,
          "highriskConsume": 0,
          "adConsume": 1246,
          "advertClickLoadPv": 625,
          "visitPv": 604,
          "visitUv": 388,
          "effectPv": 115,
          "effectUv": 100,
          "effectRate": 0.184,
          "effectCvr": 0.17,
          "consumeTotal": 815,
          "consumePercent": 65.4571,
          "recommendConsumePercent": 0.65414597514,
          "mediaCpm": null,
          "consumePerSdkUv": 0.11159234,
          "arpu": 0.13193098
        },
        {
          "appName": "有信安卓",
          "appId": 21220,
          "actExposeCount": 0,
          "actClickCount": 14650,
          "actClickRate": null,
          "sdkPv": 16738,
          "sdkUv": 13622,
          "actRequestCount": 26398,
          "actRequestUv": 13623,
          "participateCount": 21312,
          "participateUv": 5331,
          "participateRate": 0.3913,
          "dupliParticipateRate": 3.9977,
          "launchPerSdkUv": 1.5601,
          "launchCount": 21252,
          "highriskLaunch": 264,
          "highriskLaunchPercentage": 0.0124,
          "advertExposureCount": 20994,
          "advertClickCount": 6358,
          "tuiaConsumerCount": 6179,
          "clickRate": 0.3028,
          "advertClickRate": 0.2943,
          "highriskVclickPv": 2,
          "highriskVclickPercent": 3.0E-4,
          "highriskConsume": 0,
          "adConsume": 2105,
          "advertClickLoadPv": 4420,
          "visitPv": 4436,
          "visitUv": 2657,
          "effectPv": 245,
          "effectUv": 203,
          "effectRate": 0.0554,
          "effectCvr": 0.05,
          "consumeTotal": 1391,
          "consumePercent": 66.0799,
          "recommendConsumePercent": 0.660598488873,
          "mediaCpm": null,
          "consumePerSdkUv": 0.08312104,
          "arpu": 0.09907068
        },
        {
          "appName": "inmobi",
          "appId": 21230,
          "actExposeCount": 0,
          "actClickCount": 0,
          "actClickRate": null,
          "sdkPv": 17752,
          "sdkUv": 12446,
          "actRequestCount": 20141,
          "actRequestUv": 12492,
          "participateCount": 7416,
          "participateUv": 2650,
          "participateRate": 0.2121,
          "dupliParticipateRate": 2.7985,
          "launchPerSdkUv": 0.5927,
          "launchCount": 7377,
          "highriskLaunch": 133,
          "highriskLaunchPercentage": 0.018,
          "advertExposureCount": 7163,
          "advertClickCount": 3974,
          "tuiaConsumerCount": 3594,
          "clickRate": 0.5548,
          "advertClickRate": 0.5017,
          "highriskVclickPv": 32,
          "highriskVclickPercent": 0.0089,
          "highriskConsume": 16,
          "adConsume": 1602,
          "advertClickLoadPv": 1048,
          "visitPv": 972,
          "visitUv": 720,
          "effectPv": 188,
          "effectUv": 180,
          "effectRate": 0.1794,
          "effectCvr": 0.14,
          "consumeTotal": 1104,
          "consumePercent": 68.8818,
          "recommendConsumePercent": 0.681722259941,
          "mediaCpm": null,
          "consumePerSdkUv": 0.06219187,
          "arpu": 0.21726854
        },
        {
          "appName": "老板锁屏",
          "appId": 21258,
          "actExposeCount": 0,
          "actClickCount": 0,
          "actClickRate": null,
          "sdkPv": 4413,
          "sdkUv": 2767,
          "actRequestCount": 4683,
          "actRequestUv": 2767,
          "participateCount": 1807,
          "participateUv": 392,
          "participateRate": 0.1417,
          "dupliParticipateRate": 4.6097,
          "launchPerSdkUv": 0.6531,
          "launchCount": 1807,
          "highriskLaunch": 0,
          "highriskLaunchPercentage": 0.0,
          "advertExposureCount": 1789,
          "advertClickCount": 361,
          "tuiaConsumerCount": 349,
          "clickRate": 0.2018,
          "advertClickRate": 0.1951,
          "highriskVclickPv": 0,
          "highriskVclickPercent": 0.0,
          "highriskConsume": 0,
          "adConsume": 116,
          "advertClickLoadPv": 267,
          "visitPv": 222,
          "visitUv": 105,
          "effectPv": 40,
          "effectUv": 26,
          "effectRate": 0.1498,
          "effectCvr": 0.12,
          "consumeTotal": 46,
          "consumePercent": 39.9914,
          "recommendConsumePercent": 0.39991412623,
          "mediaCpm": null,
          "consumePerSdkUv": 0.01055291,
          "arpu": 0.06444383
        },
        {
          "appName": "车来了",
          "appId": 21325,
          "actExposeCount": 0,
          "actClickCount": 0,
          "actClickRate": null,
          "sdkPv": 4308,
          "sdkUv": 3111,
          "actRequestCount": 6145,
          "actRequestUv": 2431,
          "participateCount": 14511,
          "participateUv": 2121,
          "participateRate": 0.8725,
          "dupliParticipateRate": 6.8416,
          "launchPerSdkUv": 4.6303,
          "launchCount": 14405,
          "highriskLaunch": 4492,
          "highriskLaunchPercentage": 0.3118,
          "advertExposureCount": 10023,
          "advertClickCount": 3662,
          "tuiaConsumerCount": 3524,
          "clickRate": 0.3654,
          "advertClickRate": 0.3516,
          "highriskVclickPv": 4,
          "highriskVclickPercent": 0.0011,
          "highriskConsume": 2,
          "adConsume": 1570,
          "advertClickLoadPv": 1905,
          "visitPv": 1862,
          "visitUv": 1117,
          "effectPv": 302,
          "effectUv": 257,
          "effectRate": 0.1585,
          "effectCvr": 0.14,
          "consumeTotal": 1020,
          "consumePercent": 64.9998,
          "recommendConsumePercent": 0.649124424312,
          "mediaCpm": null,
          "consumePerSdkUv": 0.2369429,
          "arpu": 0.10901701
        },
        {
          "appName": "赢纳wap",
          "appId": 21366,
          "actExposeCount": 2038725,
          "actClickCount": 117397,
          "actClickRate": 0.0576,
          "sdkPv": 231317,
          "sdkUv": 184019,
          "actRequestCount": 356922,
          "actRequestUv": 184794,
          "participateCount": 110622,
          "participateUv": 40616,
          "participateRate": 0.2198,
          "dupliParticipateRate": 2.7236,
          "launchPerSdkUv": 0.5842,
          "launchCount": 107499,
          "highriskLaunch": 105,
          "highriskLaunchPercentage": 0.001,
          "advertExposureCount": 105912,
          "advertClickCount": 64141,
          "tuiaConsumerCount": 53558,
          "clickRate": 0.6056,
          "advertClickRate": 0.5057,
          "highriskVclickPv": 1162,
          "highriskVclickPercent": 0.0217,
          "highriskConsume": 612,
          "adConsume": 27994,
          "advertClickLoadPv": 15470,
          "visitPv": 13233,
          "visitUv": 10392,
          "effectPv": 2159,
          "effectUv": 2001,
          "effectRate": 0.1396,
          "effectCvr": 0.14,
          "consumeTotal": 13731,
          "consumePercent": 49.0494,
          "recommendConsumePercent": 0.479766961791,
          "mediaCpm": 6.73523894,
          "consumePerSdkUv": 0.0593614,
          "arpu": 0.26041926
        }
      ],
      "page": 1,
      "pageSize": 15,
      "totalPages": 34.0,
      "totalRecords": 499
    },
    "total": {
      "appName": null,
      "appId": null,
      "actExposeCount": 113668349,
      "actClickCount": 3703577,
      "actClickRate": 0.0326,
      "sdkPv": 25149137,
      "sdkUv": 15705054,
      "actRequestCount": 35142428,
      "actRequestUv": 15303188,
      "participateCount": 28155196,
      "participateUv": 8008591,
      "participateRate": 0.5233,
      "dupliParticipateRate": 3.5156,
      "launchPerSdkUv": 1.7681,
      "launchCount": 27768741,
      "highriskLaunch": 674927,
      "highriskLaunchPercentage": 0.0243,
      "advertExposureCount": 26995990,
      "advertClickCount": 9755334,
      "tuiaConsumerCount": 8444349,
      "clickRate": 0.3614,
      "advertClickRate": 0.3128,
      "highriskVclickPv": 80016,
      "highriskVclickPercent": 0.0095,
      "highriskConsume": 39546,
      "adConsume": 3514288,
      "advertClickLoadPv": 3338406,
      "visitPv": 3065509,
      "visitUv": 2109798,
      "effectPv": 417681,
      "effectUv": 372923,
      "effectRate": 0.1251,
      "effectCvr": 0.1128900523560207,
      "consumeTotal": 1920815,
      "consumePercent": 54.6573,
      "recommendConsumePercent": 0.540422625925,
      "mediaCpm": 16.89842412,
      "consumePerSdkUv": 0.07637701,
      "arpu": 0.12655557
    }
  }
}